<svg xmlns="http://www.w3.org/2000/svg" fill="#ffffff" stroke="white" version="1.0" width="100.000000pt" height="100.000000pt" viewBox="0 0 100.000000 100.000000" preserveAspectRatio="xMidYMid meet">

<g fill="#ffffff" stroke="white" transform="translate(0.000000,100.000000) scale(0.100000,-0.100000)">
<path fill="#ffffff" stroke="white" d="M343 826 c-119 -58 -174 -100 -191 -143 -9 -22 -52 -451 -52 -510 0 -21 38 -53 63 -53 41 0 56 30 72 145 9 60 17 110 19 112 1 2 13 -47 26 -109 15 -69 31 -119 42 -130 39 -39 98 -10 98 48 0 16 -14 108 -30 204 -16 96 -30 183 -30 192 0 11 27 31 76 56 l75 40 25 -55 c13 -31 24 -57 24 -58 0 -2 -9 -5 -20 -8 -27 -7 -26 -46 5 -222 40 -228 31 -215 155 -215 92 0 112 8 124 48 15 52 57 320 54 351 l-3 36 -91 3 -90 3 -48 113 c-62 146 -79 174 -121 192 -51 21 -63 19 -182 -40z m182 -9 c15 -13 47 -70 76 -136 27 -63 49 -116 49 -118 0 -2 -9 -3 -21 -3 -16 0 -28 17 -56 80 -23 49 -42 80 -52 80 -17 0 -193 -89 -202 -102 -3 -5 9 -98 28 -206 38 -230 40 -255 16 -250 -20 4 -24 15 -64 206 -29 140 -45 179 -65 160 -2 -3 -13 -72 -24 -154 -27 -204 -29 -214 -45 -214 -8 0 -16 4 -20 10 -3 5 4 116 16 247 15 176 25 246 38 268 12 22 49 47 136 92 66 34 130 63 142 63 12 0 34 -10 48 -23z m315 -307 c0 -6 -53 -10 -140 -10 -87 0 -140 4 -140 10 0 6 53 10 140 10 87 0 140 -4 140 -10z m-11 -72 c0 -13 -10 -79 -23 -148 l-22 -125 -84 0 -84 0 -22 125 c-34 190 -47 170 106 170 128 0 130 0 129 -22z"/>
<path fill="#ffffff" stroke="white" d="M691 866 c-87 -48 -50 -186 49 -186 51 0 100 49 100 99 0 75 -83 124 -149 87z m89 -46 c11 -11 20 -29 20 -40 0 -11 -9 -29 -20 -40 -11 -11 -29 -20 -40 -20 -11 0 -29 9 -40 20 -11 11 -20 29 -20 40 0 11 9 29 20 40 11 11 29 20 40 20 11 0 29 -9 40 -20z"/>
</g>
</svg>